module gitlab.com/ianadiwibowo/kisakita

go 1.14

require (
	github.com/go-playground/validator/v10 v10.2.0
	github.com/go-sql-driver/mysql v1.4.1
	github.com/goji/httpauth v0.0.0-20160601135302-2da839ab0f4d
	github.com/gorilla/mux v1.7.4
	github.com/jinzhu/gorm v1.9.12
	github.com/stretchr/testify v1.5.1
	github.com/subosito/gotenv v1.2.0
)
